181016 14:32:06 I - Informex http toolbox - data - version 0.1.5
181016 14:32:06 I - Argument 0: accessNr = #01596
181016 14:32:06 I - Argument 1: accessPass = XXXX
181016 14:32:06 I - Argument 2: intermediary = 03883
181016 14:32:06 I - Argument 3: password = XXXX
181016 14:32:06 I - Argument 4: environment = test
181016 14:32:06 I - Argument 5: agreement = PM1
181016 14:32:06 I - Argument 6: checkDigit = 999999
181016 14:32:06 I - Argument 7: inputPath = /home/kenny/NetBeansProjects/expertmanager/vendor/insypro/informex/../../../vendor/insypro/informex/informex/data-in/
181016 14:32:06 I - Argument 8: outputPath = /home/kenny/NetBeansProjects/expertmanager/vendor/insypro/informex/../../../vendor/insypro/informex/informex/data-out/
181016 14:32:06 C - A fatal error occured - INVALID_OUTPUT_PATH - Given path must be an empty directory - /home/kenny/NetBeansProjects/expertmanager/vendor/insypro/informex/../../../vendor/insypro/informex/informex/data-out/
Complete trace:
be.informex.front.toolboxes.common.exception.ToolBoxException: Given path must be an empty directory - /home/kenny/NetBeansProjects/expertmanager/vendor/insypro/informex/../../../vendor/insypro/informex/informex/data-out/
	at be.informex.front.toolboxes.common.params.OutputDirectoryValidator.validate(OutputDirectoryValidator.java:20)
	at be.informex.front.toolboxes.data.params.MainParametersHandler.validateParameters(MainParametersHandler.java:39)
	at be.informex.front.toolboxes.data.DataMain.execute(DataMain.java:40)
	at be.informex.front.toolboxes.data.DataMain.main(DataMain.java:28)
181016 14:32:06 I - Exiting program with return code -2
